Graphs and Tables for OMOP Results • visOmopResults
…
library(visOmopResults)
library(dplyr)
result <- mockSummarisedResult()

1. formatEstimateValue

We utilize this function to modify the estimate_value column. In this case, we will apply the default settings of the function, which include using 0 decimals for integer values, 2 decimals for numeric values, 1 decimal for percentages, and 3 decimals for proportions. Additionally, the function sets the decimal mark to ‘.’, and the thousand/millions separator to ‘,’ by default.”

result <- result |> 
  formatEstimateValue(
    decimals = c(integer = 0, numeric = 2, percentage = 1, proportion = 3),
    decimalMark = ".",
    bigMark = ",")
result
#> # A tibble: 126 × 15
#>    cdm_name result_type package_name   package_version group_name  group_level
#>    <chr>    <chr>       <chr>          <chr>           <chr>       <chr>      
#>  1 mock     <NA>        visOmopResults 0.0.1           cohort_name cohort1    
#>  2 mock     <NA>        visOmopResults 0.0.1           cohort_name cohort1    
#>  3 mock     <NA>        visOmopResults 0.0.1           cohort_name cohort1    
#>  4 mock     <NA>        visOmopResults 0.0.1           cohort_name cohort1    
#>  5 mock     <NA>        visOmopResults 0.0.1           cohort_name cohort1    
#>  6 mock     <NA>        visOmopResults 0.0.1           cohort_name cohort1    
#>  7 mock     <NA>        visOmopResults 0.0.1           cohort_name cohort1    
#>  8 mock     <NA>        visOmopResults 0.0.1           cohort_name cohort1    
#>  9 mock     <NA>        visOmopResults 0.0.1           cohort_name cohort1    
#> 10 mock     <NA>        visOmopResults 0.0.1           cohort_name cohort2    
#> # ℹ 116 more rows
#> # ℹ 9 more variables: strata_name <chr>, strata_level <chr>,
#> #   variable_name <chr>, variable_level <chr>, estimate_name <chr>,
#> #   estimate_type <chr>, estimate_value <chr>, additional_name <chr>,
#> #   additional_level <chr>

2. formatEstimateName

With this function we can transform the estimate_name and estimate_value columns. For example, it allows to consolidate into one row counts and percentages related to the same variable within the same group and strata. It’s worth noting that the estimate_name is enclosed within <…> in the estimateNameFormat argument.”

result <- result |> formatEstimateName(
  estimateNameFormat = c("N (%)" = "<count> (<percentage>%)",
                         "N" = "<count>",
                         "Mean (SD)" = "<mean> (<sd>)"),
  keepNotFormatted = FALSE)
#> Joining with `by = join_by(estimate_name)`
result
#> # A tibble: 72 × 15
#>    cdm_name result_type package_name   package_version group_name  group_level
#>    <chr>    <chr>       <chr>          <chr>           <chr>       <chr>      
#>  1 mock     <NA>        visOmopResults 0.0.1           cohort_name cohort1    
#>  2 mock     <NA>        visOmopResults 0.0.1           cohort_name cohort1    
#>  3 mock     <NA>        visOmopResults 0.0.1           cohort_name cohort1    
#>  4 mock     <NA>        visOmopResults 0.0.1           cohort_name cohort1    
#>  5 mock     <NA>        visOmopResults 0.0.1           cohort_name cohort1    
#>  6 mock     <NA>        visOmopResults 0.0.1           cohort_name cohort1    
#>  7 mock     <NA>        visOmopResults 0.0.1           cohort_name cohort1    
#>  8 mock     <NA>        visOmopResults 0.0.1           cohort_name cohort1    
#>  9 mock     <NA>        visOmopResults 0.0.1           cohort_name cohort1    
#> 10 mock     <NA>        visOmopResults 0.0.1           cohort_name cohort2    
#> # ℹ 62 more rows
#> # ℹ 9 more variables: strata_name <chr>, strata_level <chr>,
#> #   variable_name <chr>, variable_level <chr>, estimate_name <chr>,
#> #   estimate_type <chr>, estimate_value <chr>, additional_name <chr>,
#> #   additional_level <chr>
…
