…
``` r
library(visOmopResults)
result <- mockSummarisedResult()
```

## Transformation of a *<summarised_result>* object

A tidy version of the summarised can be obtained with the tidy function:

``` r
tidy(result)
#> # A tibble: 72 × 13
#>    cdm_name cohort_name age_group sex     variable_name   variable_level   count
#>    <chr>    <chr>       <chr>     <chr>   <chr>           <chr>            <int>
#>  1 mock     cohort1     overall   overall number subjects <NA>           4264105
#>  2 mock     cohort1     <40       Male    number subjects <NA>           2700733
#>  3 mock     cohort1     >=40      Male    number subjects <NA>            318143
#>  4 mock     cohort1     <40       Female  number subjects <NA>           8657326
#>  5 mock     cohort1     >=40      Female  number subjects <NA>           2794707
#>  6 mock     cohort1     overall   Male    number subjects <NA>           4910475
#>  7 mock     cohort1     overall   Female  number subjects <NA>           1577535
#>  8 mock     cohort1     <40       overall number subjects <NA>           3554527
#>  9 mock     cohort1     >=40      overall number subjects <NA>           5378514
#> 10 mock     cohort2     overall   overall number subjects <NA>           6113854
#> # ℹ 62 more rows
#> # ℹ 6 more variables: mean <dbl>, sd <dbl>, percentage <dbl>,
#> #   result_type <chr>, package_name <chr>, package_version <chr>
```

Note that tidy format is not standardised any more but it makes easier
to manipulate. The `tidy()` function does not have any customisation
function, but a sibling function is `tidySummarisedResult()` that
provides all custom functionality to specify how you want to tidy your
*<summarised_result>* object.

``` r
result |>
  tidySummarisedResult(
    splitStrata = FALSE,
    settingsColumns = "package_name", 
    pivotEstimatesBy = NULL
  )
#> # A tibble: 126 × 11
#>    result_id cdm_name cohort_name strata_name       strata_level   variable_name
#>        <int> <chr>    <chr>       <chr>             <chr>          <chr>        
#>  1         1 mock     cohort1     overall           overall        number subje…
#>  2         1 mock     cohort1     age_group &&& sex <40 &&& Male   number subje…
#>  3         1 mock     cohort1     age_group &&& sex >=40 &&& Male  number subje…
#>  4         1 mock     cohort1     age_group &&& sex <40 &&& Female number subje…
#>  5         1 mock     cohort1     age_group &&& sex >=40 &&& Fema… number subje…
#>  6         1 mock     cohort1     sex               Male           number subje…
#>  7         1 mock     cohort1     sex               Female         number subje…
#>  8         1 mock     cohort1     age_group         <40            number subje…
#>  9         1 mock     cohort1     age_group         >=40           number subje…
#> 10         1 mock     cohort2     overall           overall        number subje…
#> # ℹ 116 more rows
#> # ℹ 5 more variables: variable_level <chr>, estimate_name <chr>,
#> #   estimate_type <chr>, estimate_value <chr>, package_name <chr>
```
…
- `filterSettings()`
- `filterGroup()`
- `filterStrata()`
- `filterAdditional()`

can help to do that:

``` r
result |>
  filterSettings(package_name == "visOmopResults")
#> # A tibble: 126 × 13
#>    result_id cdm_name group_name  group_level strata_name       strata_level   
#>        <int> <chr>    <chr>       <chr>       <chr>             <chr>          
#>  1         1 mock     cohort_name cohort1     overall           overall        
#>  2         1 mock     cohort_name cohort1     age_group &&& sex <40 &&& Male   
#>  3         1 mock     cohort_name cohort1     age_group &&& sex >=40 &&& Male  
#>  4         1 mock     cohort_name cohort1     age_group &&& sex <40 &&& Female 
#>  5         1 mock     cohort_name cohort1     age_group &&& sex >=40 &&& Female
#>  6         1 mock     cohort_name cohort1     sex               Male           
#>  7         1 mock     cohort_name cohort1     sex               Female         
#>  8         1 mock     cohort_name cohort1     age_group         <40            
#>  9         1 mock     cohort_name cohort1     age_group         >=40           
#> 10         1 mock     cohort_name cohort2     overall           overall        
#> # ℹ 116 more rows
#> # ℹ 7 more variables: variable_name <chr>, variable_level <chr>,
#> #   estimate_name <chr>, estimate_type <chr>, estimate_value <chr>,
#> #   additional_name <chr>, additional_level <chr>
```
``` r
result |>
  filterSettings(package_name == "other")
#> # A tibble: 0 × 13
#> # ℹ 13 variables: result_id <int>, cdm_name <chr>, group_name <chr>,
#> #   group_level <chr>, strata_name <chr>, strata_level <chr>,
#> #   variable_name <chr>, variable_level <chr>, estimate_name <chr>,
#> #   estimate_type <chr>, estimate_value <chr>, additional_name <chr>,
#> #   additional_level <chr>
```

``` r
result |>
  filterStrata(sex == "Female")
#> # A tibble: 42 × 13
#>    result_id cdm_name group_name  group_level strata_name       strata_level   
#>        <int> <chr>    <chr>       <chr>       <chr>             <chr>          
#>  1         1 mock     cohort_name cohort1     age_group &&& sex <40 &&& Female 
#>  2         1 mock     cohort_name cohort1     age_group &&& sex >=40 &&& Female
#>  3         1 mock     cohort_name cohort1     sex               Female         
#>  4         1 mock     cohort_name cohort2     age_group &&& sex <40 &&& Female 
#>  5         1 mock     cohort_name cohort2     age_group &&& sex >=40 &&& Female
#>  6         1 mock     cohort_name cohort2     sex               Female         
#>  7         1 mock     cohort_name cohort1     age_group &&& sex <40 &&& Female 
#>  8         1 mock     cohort_name cohort1     age_group &&& sex >=40 &&& Female
#>  9         1 mock     cohort_name cohort1     sex               Female         
#> 10         1 mock     cohort_name cohort2     age_group &&& sex <40 &&& Female 
#> # ℹ 32 more rows
#> # ℹ 7 more variables: variable_name <chr>, variable_level <chr>,
#> #   estimate_name <chr>, estimate_type <chr>, estimate_value <chr>,
#> #   additional_name <chr>, additional_level <chr>
```
…
