Shiny Apps • visOmopResults
…
If you have your own <summarised_result> table,
which don’t has a dedicated table function, you can instead use
visOmopTable() to generate a gt table in
Shiny. This allows you to group estimates and configure header, group,
and hidden column options in a similar way.

2) Large Scale characteristics

These results are not in <summarised_result>
format, as shown below:

data$large_scale_characteristics
#> # A tibble: 952 × 8
#>    cdm_name      cohort_name sex   variable_name variable_level concept_id count
#>    <chr>         <chr>       <chr> <chr>         <chr>          <chr>      <int>
#>  1 my_duckdb_da… denominato… over… Acute allerg… -inf to -366   4084167      113
#>  2 my_duckdb_da… denominato… over… Acute bacter… -inf to -366   4294548      607
#>  3 my_duckdb_da… denominato… over… Acute bronch… -inf to -366   260139      2303
#>  4 my_duckdb_da… denominato… over… Acute cholec… -inf to -366   198809        29
#>  5 my_duckdb_da… denominato… over… Acute viral … -inf to -366   4112343     2388
#>  6 my_duckdb_da… denominato… over… Alzheimer's … -inf to -366   378419        15
#>  7 my_duckdb_da… denominato… over… Anemia        -inf to -366   439777        73
#>  8 my_duckdb_da… denominato… over… Angiodysplas… -inf to -366   4310024      281
#>  9 my_duckdb_da… denominato… over… Appendicitis  -inf to -366   440448       125
#> 10 my_duckdb_da… denominato… over… Atopic derma… -inf to -366   133834        54
#> # ℹ 942 more rows
#> # ℹ 1 more variable: percentage <dbl>
…
