…
If you have your own `<summarised_result>` table, which don’t has a
dedicated table function, you can instead use
[`visOmopTable()`](https://darwin-eu.github.io/visOmopResults/reference/visOmopTable.md)
to generate a `gt` table in Shiny. This allows you to group estimates
and configure header, group, and hidden column options in a similar way.

#### 2) Large Scale characteristics

These results are not in `<summarised_result>` format, as shown below:

``` r
data$large_scale_characteristics
#> # A tibble: 952 × 8
#>    cdm_name    cohort_name sex   concept_name window concept_id count percentage
#>    <chr>       <chr>       <chr> <chr>        <chr>  <chr>      <int>      <dbl>
#>  1 my_duckdb_… denominato… over… Acute aller… -inf … 4084167      113       4.41
#>  2 my_duckdb_… denominato… over… Acute bacte… -inf … 4294548      607      23.7 
#>  3 my_duckdb_… denominato… over… Acute bronc… -inf … 260139      2303      89.8 
#>  4 my_duckdb_… denominato… over… Acute chole… -inf … 198809        29       1.13
#>  5 my_duckdb_… denominato… over… Acute viral… -inf … 4112343     2388      93.1 
#>  6 my_duckdb_… denominato… over… Alzheimer's… -inf … 378419        15       0.59
#>  7 my_duckdb_… denominato… over… Anemia       -inf … 439777        73       2.85
#>  8 my_duckdb_… denominato… over… Angiodyspla… -inf … 4310024      281      11.0 
#>  9 my_duckdb_… denominato… over… Appendicitis -inf … 440448       125       4.88
#> 10 my_duckdb_… denominato… over… Atopic derm… -inf … 133834        54       2.11
#> # ℹ 942 more rows
```
…
