Filter helpers • visOmopResults
…
We can now merge both results in a unique
<summarised_result> object:

result <- bind(result1, result2)
settings(result)
#> # A tibble: 2 × 5
#>   result_id result_type            package_name   package_version my_parameter
#>       <int> <chr>                  <chr>          <chr>           <lgl>       
#> 1         1 mock_summarised_result visOmopResults 0.4.1           NA          
#> 2         2 second_mock_result     omopgenerics   1.0.0           TRUE
result
#> # A tibble: 252 × 13
#>    result_id cdm_name group_name  group_level strata_name       strata_level   
#>        <int> <chr>    <chr>       <chr>       <chr>             <chr>          
#>  1         1 mock     cohort_name cohort1     overall           overall        
#>  2         1 mock     cohort_name cohort1     age_group &&& sex <40 &&& Male   
#>  3         1 mock     cohort_name cohort1     age_group &&& sex >=40 &&& Male  
#>  4         1 mock     cohort_name cohort1     age_group &&& sex <40 &&& Female 
#>  5         1 mock     cohort_name cohort1     age_group &&& sex >=40 &&& Female
#>  6         1 mock     cohort_name cohort1     sex               Male           
#>  7         1 mock     cohort_name cohort1     sex               Female         
#>  8         1 mock     cohort_name cohort1     age_group         <40            
#>  9         1 mock     cohort_name cohort1     age_group         >=40           
#> 10         1 mock     cohort_name cohort2     overall           overall        
#> # ℹ 242 more rows
#> # ℹ 7 more variables: variable_name <chr>, variable_level <chr>,
#> #   estimate_name <chr>, estimate_type <chr>, estimate_value <chr>,
#> #   additional_name <chr>, additional_level <chr>

You could potentially add the settings with
addSettings(), then filter and finally eliminate the
columns. Let’s see an example where we subset to the results that have
my_parameter == TRUE:

resultMyParam <- result |>
  addSettings(settingsColumns = "my_parameter") |>
  filter(my_parameter == TRUE) |>
  select(!"my_parameter")
resultMyParam
#> # A tibble: 126 × 13
#>    result_id cdm_name group_name  group_level strata_name       strata_level   
#>        <int> <chr>    <chr>       <chr>       <chr>             <chr>          
#>  1         2 mock     cohort_name cohort1     overall           overall        
#>  2         2 mock     cohort_name cohort1     age_group &&& sex <40 &&& Male   
#>  3         2 mock     cohort_name cohort1     age_group &&& sex >=40 &&& Male  
#>  4         2 mock     cohort_name cohort1     age_group &&& sex <40 &&& Female 
#>  5         2 mock     cohort_name cohort1     age_group &&& sex >=40 &&& Female
#>  6         2 mock     cohort_name cohort1     sex               Male           
#>  7         2 mock     cohort_name cohort1     sex               Female         
#>  8         2 mock     cohort_name cohort1     age_group         <40            
#>  9         2 mock     cohort_name cohort1     age_group         >=40           
#> 10         2 mock     cohort_name cohort2     overall           overall        
#> # ℹ 116 more rows
#> # ℹ 7 more variables: variable_name <chr>, variable_level <chr>,
#> #   estimate_name <chr>, estimate_type <chr>, estimate_value <chr>,
#> #   additional_name <chr>, additional_level <chr>
…
settings(resultMyParam)
#> # A tibble: 2 × 5
#>   result_id result_type            package_name   package_version my_parameter
#>       <int> <chr>                  <chr>          <chr>           <lgl>       
#> 1         1 mock_summarised_result visOmopResults 0.4.1           NA          
#> 2         2 second_mock_result     omopgenerics   1.0.0           TRUE

We can do the same solving the three problems using
filterSettings():

resultMyParam <- result |>
  filterSettings(my_parameter == TRUE)
resultMyParam
#> # A tibble: 126 × 13
#>    result_id cdm_name group_name  group_level strata_name       strata_level   
#>        <int> <chr>    <chr>       <chr>       <chr>             <chr>          
#>  1         2 mock     cohort_name cohort1     overall           overall        
#>  2         2 mock     cohort_name cohort1     age_group &&& sex <40 &&& Male   
#>  3         2 mock     cohort_name cohort1     age_group &&& sex >=40 &&& Male  
#>  4         2 mock     cohort_name cohort1     age_group &&& sex <40 &&& Female 
#>  5         2 mock     cohort_name cohort1     age_group &&& sex >=40 &&& Female
#>  6         2 mock     cohort_name cohort1     sex               Male           
#>  7         2 mock     cohort_name cohort1     sex               Female         
#>  8         2 mock     cohort_name cohort1     age_group         <40            
#>  9         2 mock     cohort_name cohort1     age_group         >=40           
#> 10         2 mock     cohort_name cohort2     overall           overall        
#> # ℹ 116 more rows
#> # ℹ 7 more variables: variable_name <chr>, variable_level <chr>,
#> #   estimate_name <chr>, estimate_type <chr>, estimate_value <chr>,
#> #   additional_name <chr>, additional_level <chr>
…
One option that we could use is splitStrata(),
filter() and then uniteStrata() again:

result |>
  splitStrata() |>
  filter(sex == "Female") |>
  uniteStrata(c("age_group", "sex"))
#> # A tibble: 84 × 13
#>    result_id cdm_name group_name  group_level strata_name       strata_level   
#>        <int> <chr>    <chr>       <chr>       <chr>             <chr>          
#>  1         1 mock     cohort_name cohort1     age_group &&& sex <40 &&& Female 
#>  2         1 mock     cohort_name cohort1     age_group &&& sex >=40 &&& Female
#>  3         1 mock     cohort_name cohort1     sex               Female         
#>  4         1 mock     cohort_name cohort2     age_group &&& sex <40 &&& Female 
#>  5         1 mock     cohort_name cohort2     age_group &&& sex >=40 &&& Female
#>  6         1 mock     cohort_name cohort2     sex               Female         
#>  7         1 mock     cohort_name cohort1     age_group &&& sex <40 &&& Female 
#>  8         1 mock     cohort_name cohort1     age_group &&& sex >=40 &&& Female
#>  9         1 mock     cohort_name cohort1     sex               Female         
#> 10         1 mock     cohort_name cohort2     age_group &&& sex <40 &&& Female 
#> # ℹ 74 more rows
#> # ℹ 7 more variables: variable_name <chr>, variable_level <chr>,
#> #   estimate_name <chr>, estimate_type <chr>, estimate_value <chr>,
#> #   additional_name <chr>, additional_level <chr>
…
It is extremely inefficient (all the rows must be splitted and
united back).

You need to know which are the strata columns (you could potentially
use strataColumns()).

You have to use multiple functions.

We could do exactly the same with the function
filterStrata():

result |>
  filterStrata(sex == "Female")
#> # A tibble: 84 × 13
#>    result_id cdm_name group_name  group_level strata_name       strata_level   
#>        <int> <chr>    <chr>       <chr>       <chr>             <chr>          
#>  1         1 mock     cohort_name cohort1     age_group &&& sex <40 &&& Female 
#>  2         1 mock     cohort_name cohort1     age_group &&& sex >=40 &&& Female
#>  3         1 mock     cohort_name cohort1     sex               Female         
#>  4         1 mock     cohort_name cohort2     age_group &&& sex <40 &&& Female 
#>  5         1 mock     cohort_name cohort2     age_group &&& sex >=40 &&& Female
#>  6         1 mock     cohort_name cohort2     sex               Female         
#>  7         1 mock     cohort_name cohort1     age_group &&& sex <40 &&& Female 
#>  8         1 mock     cohort_name cohort1     age_group &&& sex >=40 &&& Female
#>  9         1 mock     cohort_name cohort1     sex               Female         
#> 10         1 mock     cohort_name cohort2     age_group &&& sex <40 &&& Female 
#> # ℹ 74 more rows
#> # ℹ 7 more variables: variable_name <chr>, variable_level <chr>,
#> #   estimate_name <chr>, estimate_type <chr>, estimate_value <chr>,
#> #   additional_name <chr>, additional_level <chr>
…
unite functions

In this previous section we have mentioned the function
uniteStrata() without explaining its functionality so let’s
cover it with a couple of examples. The uniteGroup(),
uniteStrata() and uniteAdditional() functions
are the opposite to the split*() type functions:

result |>
  splitStrata()
#> # A tibble: 252 × 13
#>    result_id cdm_name group_name  group_level age_group sex     variable_name  
#>        <int> <chr>    <chr>       <chr>       <chr>     <chr>   <chr>          
#>  1         1 mock     cohort_name cohort1     overall   overall number subjects
#>  2         1 mock     cohort_name cohort1     <40       Male    number subjects
#>  3         1 mock     cohort_name cohort1     >=40      Male    number subjects
#>  4         1 mock     cohort_name cohort1     <40       Female  number subjects
#>  5         1 mock     cohort_name cohort1     >=40      Female  number subjects
#>  6         1 mock     cohort_name cohort1     overall   Male    number subjects
#>  7         1 mock     cohort_name cohort1     overall   Female  number subjects
#>  8         1 mock     cohort_name cohort1     <40       overall number subjects
#>  9         1 mock     cohort_name cohort1     >=40      overall number subjects
#> 10         1 mock     cohort_name cohort2     overall   overall number subjects
#> # ℹ 242 more rows
#> # ℹ 6 more variables: variable_level <chr>, estimate_name <chr>,
#> #   estimate_type <chr>, estimate_value <chr>, additional_name <chr>,
#> #   additional_level <chr>

result |>
  splitStrata() |>
  uniteStrata(c("age_group", "sex"))
#> # A tibble: 252 × 13
#>    result_id cdm_name group_name  group_level strata_name       strata_level   
#>        <int> <chr>    <chr>       <chr>       <chr>             <chr>          
#>  1         1 mock     cohort_name cohort1     overall           overall        
#>  2         1 mock     cohort_name cohort1     age_group &&& sex <40 &&& Male   
#>  3         1 mock     cohort_name cohort1     age_group &&& sex >=40 &&& Male  
#>  4         1 mock     cohort_name cohort1     age_group &&& sex <40 &&& Female 
#>  5         1 mock     cohort_name cohort1     age_group &&& sex >=40 &&& Female
#>  6         1 mock     cohort_name cohort1     sex               Male           
#>  7         1 mock     cohort_name cohort1     sex               Female         
#>  8         1 mock     cohort_name cohort1     age_group         <40            
#>  9         1 mock     cohort_name cohort1     age_group         >=40           
#> 10         1 mock     cohort_name cohort2     overall           overall        
#> # ℹ 242 more rows
#> # ℹ 7 more variables: variable_name <chr>, variable_level <chr>,
#> #   estimate_name <chr>, estimate_type <chr>, estimate_value <chr>,
#> #   additional_name <chr>, additional_level <chr>
…
