Tidy your summarised result object • visOmopResults
…
age
NA
50.3
20.7

Example

Let’s see a simple example with some toy data:

library(visOmopResults)
result <- mockSummarisedResult()
result |>
  tidy()
#> # A tibble: 72 × 13
#>    cdm_name cohort_name age_group sex     variable_name   variable_level   count
#>    <chr>    <chr>       <chr>     <chr>   <chr>           <chr>            <int>
#>  1 mock     cohort1     overall   overall number subjects NA             9200055
#>  2 mock     cohort1     <40       Male    number subjects NA             4007202
#>  3 mock     cohort1     >=40      Male    number subjects NA             2131727
#>  4 mock     cohort1     <40       Female  number subjects NA             6717668
#>  5 mock     cohort1     >=40      Female  number subjects NA              586141
#>  6 mock     cohort1     overall   Male    number subjects NA             9970691
#>  7 mock     cohort1     overall   Female  number subjects NA             1490355
#>  8 mock     cohort1     <40       overall number subjects NA             5185566
#>  9 mock     cohort1     >=40      overall number subjects NA             8461201
#> 10 mock     cohort2     overall   overall number subjects NA             7182697
#> # ℹ 62 more rows
#> # ℹ 6 more variables: mean <dbl>, sd <dbl>, percentage <dbl>,
#> #   result_type <chr>, package_name <chr>, package_version <chr>
…
c("variable_level", "estimates_name") to pivot
estimate_name and variable_level.

c("variable_name", "variable_level", "estimates_name")
to pivot estimate_name, variable_level and variable_name.

Note that ‘variable_level’ can contain NA values, these will be
ignored on the naming part.

The default values of tidySummarisedResult() will make
that it is nearly equivalent to the tidy method (‘result_id’ is not
eliminated by tidySummarisedResult()).

tidySummarisedResult(result)
#> # A tibble: 72 × 14
#>    result_id cdm_name cohort_name age_group sex     variable_name variable_level
#>        <int> <chr>    <chr>       <chr>     <chr>   <chr>         <chr>         
#>  1         1 mock     cohort1     overall   overall number subje… NA            
#>  2         1 mock     cohort1     <40       Male    number subje… NA            
#>  3         1 mock     cohort1     >=40      Male    number subje… NA            
#>  4         1 mock     cohort1     <40       Female  number subje… NA            
#>  5         1 mock     cohort1     >=40      Female  number subje… NA            
#>  6         1 mock     cohort1     overall   Male    number subje… NA            
#>  7         1 mock     cohort1     overall   Female  number subje… NA            
#>  8         1 mock     cohort1     <40       overall number subje… NA            
#>  9         1 mock     cohort1     >=40      overall number subje… NA            
#> 10         1 mock     cohort2     overall   overall number subje… NA            
#> # ℹ 62 more rows
#> # ℹ 7 more variables: count <int>, mean <dbl>, sd <dbl>, percentage <dbl>,
#> #   result_type <chr>, package_name <chr>, package_version <chr>

But then we can have some customised behaviour:

result |>
  tidySummarisedResult(
    splitAdditional = FALSE,
    settingsColumns = "package_name",
    pivotEstimatesBy = c("variable_level", "estimate_name")
  )
#> # A tibble: 54 × 16
#>    result_id cdm_name cohort_name age_group sex    variable_name additional_name
#>        <int> <chr>    <chr>       <chr>     <chr>  <chr>         <chr>          
#>  1         1 mock     cohort1     overall   overa… number subje… overall        
#>  2         1 mock     cohort1     <40       Male   number subje… overall        
#>  3         1 mock     cohort1     >=40      Male   number subje… overall        
#>  4         1 mock     cohort1     <40       Female number subje… overall        
#>  5         1 mock     cohort1     >=40      Female number subje… overall        
#>  6         1 mock     cohort1     overall   Male   number subje… overall        
#>  7         1 mock     cohort1     overall   Female number subje… overall        
#>  8         1 mock     cohort1     <40       overa… number subje… overall        
#>  9         1 mock     cohort1     >=40      overa… number subje… overall        
#> 10         1 mock     cohort2     overall   overa… number subje… overall        
#> # ℹ 44 more rows
#> # ℹ 9 more variables: additional_level <chr>, count <int>, mean <dbl>,
#> #   sd <dbl>, Amoxiciline_count <int>, Amoxiciline_percentage <dbl>,
#> #   Ibuprofen_count <int>, Ibuprofen_percentage <dbl>, package_name <chr>
…
